<svg xmlns="http://www.w3.org/2000/svg" id="prefix__noun_dashboard_227554" width="45" height="45" viewBox="0 0 45 45">
    <path id="prefix__Path_1117" d="M5.625 21.094A1.406 1.406 0 1 1 7.031 22.5a1.406 1.406 0 0 1-1.406-1.406zm4.922-9.844a1.406 1.406 0 1 1 1.406 1.406 1.406 1.406 0 0 1-1.406-1.406zm10.547-4.219A1.406 1.406 0 1 1 22.5 8.438a1.406 1.406 0 0 1-1.406-1.407zM34.03 11.65a1.429 1.429 0 0 1 0 2.022l-9.1 9.1a1.43 1.43 0 0 1-2.022-2.022l9.1-9.1a1.43 1.43 0 0 1 2.022 0zm3.939 8.037a1.406 1.406 0 1 1-1.406 1.406 1.406 1.406 0 0 1 1.406-1.405zM18.281 33.75h8.438a1.406 1.406 0 1 1 0 2.812h-8.438a1.406 1.406 0 1 1 0-2.812zM22.5 45a22.43 22.43 0 0 1-15.884-6.566 1.4 1.4 0 1 1 1.957-2.007l.006-.006A19.687 19.687 0 1 0 2.813 22.5a18.9 18.9 0 0 0 .4 3.79 2.809 2.809 0 0 0 2.632 1.835h11.206a1.053 1.053 0 0 0 .857-.439.054.054 0 0 1 .033-.02 5.594 5.594 0 0 1 9.119 0 .052.052 0 0 1 .033.02 1.053 1.053 0 0 0 .857.439h7.207a1.406 1.406 0 0 1 0 2.813h-7.4a3.509 3.509 0 0 1-2.89-1.519 2.8 2.8 0 0 0-4.723 0 3.509 3.509 0 0 1-2.89 1.519H5.845A5.615 5.615 0 0 1 .4 26.676 22.493 22.493 0 1 1 22.5 45z" data-name="Path 1117" style="fill:#888;fill-rule:evenodd"/>
</svg>
