<?xml version="1.0" encoding="utf-8"?>
<!-- Generator: Adobe Illustrator 24.1.0, SVG Export Plug-In . SVG Version: 6.00 Build 0)  -->
<svg version="1.1" id="Layer_1" xmlns="http://www.w3.org/2000/svg" xmlns:xlink="http://www.w3.org/1999/xlink" x="0px" y="0px"
	 viewBox="0 0 300.4 121.9" style="enable-background:new 0 0 300.4 121.9;" xml:space="preserve">
<style type="text/css">
	.st0{enable-background:new    ;}
</style>
<g id="Group_85" transform="translate(0.5 0.5)">
	<g id="logo_walentex">
		<path id="Union_6" d="M-0.5,86V-0.5h299.9V86H-0.5z M3.2,82.3H282l13.7-13.7V3.1H3.2V82.3z M164,39.8V63h-5.4V26.3L180,50.1V26.8
			h5.3v37.1L164,39.8z M53.6,45.4l-8.4,18.4L25.6,20.9h5.9l13.6,30.5l5.6-12.5l-8.2-18h5.9L62,50.8l13.3-29.9h6L62,63.9L53.6,45.4z
			 M266.6,63l-22.8-36.2h6.6L273.3,63L266.6,63z M242.6,63l11.4-18.1l3.4,5.3l-8,12.8L242.6,63z M218.9,63V26.7h19v5.4h-13.6V41h8.3
			v5.4h-8.3v11.2h13.6V63L218.9,63z M199.5,63V32.2h-8.3v-5.4h21.8v5.4h-8.2V63H199.5z M133.7,63V26.7h19v5.4h-13.6V41h8.3v5.4h-8.3
			v11.2h13.6V63L133.7,63z M111.3,62.7v-36h5.4v30.8h11.2V63L111.3,62.7z M99.4,63l-10-24.9l-5.8,14.2h8.3V57H81.7l-2.6,6h-5.8
			l16.1-36.6l16,36.6L99.4,63z M258.7,37.7l6.9-11h6.6l-10.1,16L258.7,37.7z"/>
	</g>
	<g class="st0">
		<path d="M3.1,120.5l1.3,0c0.3,0,0.5-0.3,0.5-0.6v-12.6c0-0.2-0.1-0.3-0.3-0.3h-1c-2.2,0-3.1,1-3.1,3.1h-0.6v-3.9c0.2,0,0.6,0,1,0
			h10.5c0.5,0,0.9,0,1,0v3.9h-0.6c0-2.2-0.9-3.1-3.1-3.1h-1c-0.2,0-0.3,0.1-0.3,0.3V120c0,0.4,0.2,0.5,0.5,0.5l1.3,0v0.7h-6V120.5z"
			/>
		<path d="M17.2,116c0-3.6,1.7-5.5,5-5.5c2.6,0,4.4,1.8,4.4,4.7v0.7h-7.2c0,3,1,4.7,3.1,4.7c1.7,0,2.8-0.9,3.4-2.2l0.6,0.4
			c-0.7,1.6-2.4,2.6-4.3,2.6C18.9,121.4,17.2,119.6,17.2,116z M24.1,115.3c0.3,0,0.5-0.2,0.5-0.8c0-2.3-0.6-3.3-2.3-3.3
			c-1.9,0-2.7,1.7-2.7,4.1H24.1z"/>
		<path d="M33.2,116c0-3.3,1.9-5.6,4.9-5.6c0.7,0,1.3,0.1,1.9,0.3c1.2,0.5,1.9,1.3,1.9,2.2c0,0.7-0.4,1.2-1.2,1.2
			c-0.6,0-0.9-0.2-0.9-0.8c0-0.1,0-0.3,0.1-0.5c0.1-0.2,0.1-0.4,0.1-0.6c0-0.8-0.9-1.3-1.9-1.3c-1.7,0-2.6,1.2-2.6,4.6
			c0,3.4,0.9,5,2.8,5c1.7,0,3-0.9,3.5-2.5l0.6,0.3c-0.7,1.9-2.1,2.9-4.2,2.9C35.1,121.4,33.2,119.4,33.2,116z"/>
		<path d="M48.6,120.5l0.9,0c0.2,0,0.3-0.2,0.3-0.5v-8.3c0-0.3-0.1-0.5-0.3-0.5l-0.9,0v-0.6H52v9.4c0,0.3,0.1,0.5,0.3,0.5l0.9,0v0.6
			h-4.6V120.5z M49.4,106.3c0-0.7,0.5-1.2,1.3-1.2s1.4,0.5,1.4,1.2c0,0.8-0.5,1.2-1.4,1.2C49.9,107.5,49.4,107.1,49.4,106.3z"/>
		<path d="M59.7,116c0-3.6,1.6-5.5,4.7-5.5c1.5,0,2.5,0.8,2.9,2V104c0-0.3-0.1-0.5-0.3-0.5l-1.1,0v-0.6h3.6v17.2
			c0,0.3,0.1,0.5,0.3,0.5l0.9,0v0.6h-3.6c0-0.1,0.1-0.3,0.1-0.4v-0.5c0-0.2,0-0.4,0-0.5s0-0.2,0-0.2c-0.4,1.2-1.2,1.9-2.8,1.9
			C61,121.4,59.7,119.7,59.7,116z M67.2,116.6v-1c0-2.8-0.9-4.4-2.8-4.4c-1.8,0-2.4,1.7-2.4,4.8c0,1.2,0.1,2.2,0.2,2.8
			c0.3,1.4,0.9,1.9,2.2,1.9C66.5,120.8,67.2,119.5,67.2,116.6z"/>
		<path d="M76.8,115.9c0-3.4,1.7-5.5,5-5.5c3.3,0,5,2,5,5.3c0,3.8-1.7,5.6-5.1,5.6C78.6,121.4,76.8,119.4,76.8,115.9z M84.6,116
			c0-3.4-0.8-4.8-2.7-4.8s-2.7,1.4-2.7,4.8c0,3.4,0.8,4.8,2.7,4.8S84.6,119.3,84.6,116z"/>
		<path d="M95,120.9c-0.2-0.1-0.5-0.1-0.7-0.1c-0.3,0-0.6,0.1-0.7,0.2l0.1-3.3l0.6-0.1c0,1.8,1.6,3.2,3.6,3.2c1.3,0,2.1-0.7,2.1-1.9
			c0-0.9-0.5-1.5-1.7-1.9l-2.4-0.7c-1.3-0.4-2.1-1.4-2.1-2.8c0-1.8,1.4-3.1,3.8-3.1c0.7,0,1.1,0.1,1.8,0.3c0.5,0.2,0.9,0.2,1.1,0.2
			s0.5-0.1,0.7-0.2l-0.1,2.8h-0.5c0-1.3-1.1-2.5-2.9-2.5c-1.3,0-2,0.8-2,1.8c0,0.8,0.5,1.4,1.5,1.6l2.4,0.7c1.7,0.5,2.3,1.3,2.3,2.8
			c0,2.2-1.7,3.4-4.1,3.4C97.1,121.4,96.5,121.3,95,120.9z"/>
		<path d="M118.7,116c0-3.6,1.7-5.5,5-5.5c2.6,0,4.4,1.8,4.4,4.7v0.7h-7.2c0,3,1,4.7,3.1,4.7c1.7,0,2.8-0.9,3.4-2.2l0.6,0.4
			c-0.7,1.6-2.4,2.6-4.3,2.6C120.4,121.4,118.7,119.6,118.7,116z M125.5,115.3c0.3,0,0.5-0.2,0.5-0.8c0-2.3-0.6-3.3-2.3-3.3
			c-1.9,0-2.7,1.7-2.7,4.1H125.5z"/>
		<path d="M144.7,118.6c0-2.6,2.1-3.7,6.7-3.7v-1.6c0-1.6-0.7-2.2-2.3-2.2c-1.3,0-1.9,0.3-1.9,1c0,0.1,0.1,0.3,0.1,0.4
			c0.1,0.2,0.1,0.4,0.1,0.5c0,0.6-0.4,0.8-1,0.8c-0.7,0-1.1-0.5-1.1-1.2c0-1.4,1.6-2.3,4-2.3c2.8,0,4.2,1.2,4.2,3.5v6.1
			c0,0.3,0.1,0.5,0.3,0.5l0.9,0v0.6h-3.5c0.1-0.3,0.1-0.6,0.1-0.9l0.1-1c-0.7,1.4-1.8,2.1-3.5,2.1
			C145.8,121.4,144.7,120.5,144.7,118.6z M151.4,117.1v-1.6c-3.1,0-4.4,0.8-4.4,2.9c0,1.5,0.5,2.2,1.7,2.1
			C150.1,120.5,151.3,119.1,151.4,117.1z"/>
		<path d="M160.7,111.6c-0.1-0.2-0.3-0.3-0.5-0.3l-0.8,0v-0.6h5.1v0.6l-1.1,0c-0.2,0-0.5,0.2-0.4,0.5l2.7,6.6l2.6-6.7
			c0-0.1,0.1-0.1,0.1-0.2c0-0.2-0.1-0.2-0.2-0.2l-1.1,0v-0.6h3.5v0.6l-0.8,0c-0.3,0-0.5,0.1-0.6,0.4l-3.9,9.6h-0.7L160.7,111.6z"/>
		<path d="M176.4,120.5l0.9,0c0.2,0,0.3-0.2,0.3-0.5v-8.3c0-0.3-0.1-0.5-0.3-0.5l-0.9,0v-0.6h3.4v9.4c0,0.3,0.1,0.5,0.3,0.5l0.9,0
			v0.6h-4.6V120.5z M177.2,106.3c0-0.7,0.5-1.2,1.3-1.2s1.4,0.5,1.4,1.2c0,0.8-0.5,1.2-1.4,1.2C177.8,107.5,177.2,107.1,177.2,106.3
			z"/>
		<path d="M187.4,118.6c0-2.6,2.1-3.7,6.7-3.7v-1.6c0-1.6-0.7-2.2-2.3-2.2c-1.3,0-1.9,0.3-1.9,1c0,0.1,0,0.3,0.1,0.4
			s0.1,0.4,0.1,0.5c0,0.6-0.4,0.8-1,0.8c-0.7,0-1.1-0.5-1.1-1.2c0-1.4,1.6-2.3,4-2.3c2.8,0,4.2,1.2,4.2,3.5v6.1
			c0,0.3,0.1,0.5,0.3,0.5l0.9,0v0.6h-3.5c0.1-0.3,0.1-0.6,0.1-0.9l0.1-1c-0.7,1.4-1.8,2.1-3.5,2.1
			C188.5,121.4,187.4,120.5,187.4,118.6z M194,117.1v-1.6c-3.1,0-4.4,0.8-4.4,2.9c0,1.5,0.5,2.2,1.7,2.1
			C192.8,120.5,193.9,119.1,194,117.1z"/>
		<path d="M203.6,120.5l0.9,0c0.2,0,0.3-0.2,0.3-0.5v-8.3c0-0.3-0.1-0.5-0.3-0.5l-0.9,0v-0.6h3.5c-0.1,0.2-0.1,0.5-0.1,0.8v1.4
			c0.5-1.5,1.8-2.5,3.6-2.5c1.9,0,3,0.6,3.3,2.8c0.6-1.8,1.9-2.8,3.7-2.8c2.4,0,3.3,1,3.3,3.5v6.1c0,0.3,0.1,0.5,0.3,0.5l0.9,0v0.6
			h-4.9v-0.6l1.1,0c0.2,0,0.3-0.2,0.3-0.5v-5.7c0-1.4-0.1-2.2-0.4-2.6s-0.7-0.6-1.3-0.6c-1.8,0-3.1,1.7-3.2,4.4v4.5
			c0,0.3,0.1,0.5,0.3,0.5l1.2,0v0.6h-5.1v-0.6l1.1,0c0.2,0,0.3-0.2,0.3-0.5v-5.7c0-2.4-0.2-3.1-1.8-3.1c-1.7,0-2.9,1.7-3,4.1l0,4.7
			c0,0.3,0.1,0.5,0.3,0.5l1.2,0v0.6h-4.9V120.5z"/>
		<path d="M228.3,116c0-3.6,1.7-5.5,5-5.5c2.6,0,4.4,1.8,4.4,4.7v0.7h-7.2c0,3,1,4.7,3.1,4.7c1.7,0,2.8-0.9,3.4-2.2l0.6,0.4
			c-0.7,1.6-2.4,2.6-4.3,2.6C230,121.4,228.3,119.6,228.3,116z M235.2,115.3c0.3,0,0.5-0.2,0.5-0.8c0-2.3-0.6-3.3-2.3-3.3
			c-1.9,0-2.7,1.7-2.7,4.1H235.2z"/>
		<path d="M244.3,120.5l0.9,0c0.2,0,0.3-0.2,0.3-0.5v-8.3c0-0.3-0.1-0.5-0.3-0.5l-0.9,0v-0.6h3.5c-0.1,0.2-0.1,0.5-0.1,0.9v1.4
			c0.7-1.6,2-2.5,3.7-2.5c2.4,0,3.3,1,3.3,3.5v6.1c0,0.3,0.1,0.5,0.3,0.5l0.9,0v0.6h-4.9v-0.6l1.1,0c0.2,0,0.3-0.2,0.3-0.5v-5.7
			c0-2.3-0.3-3.2-1.7-3.2c-1.9,0-3.2,1.7-3.3,4.5v4.4c0,0.3,0.1,0.5,0.3,0.5l1.2,0v0.6h-4.9V120.5z"/>
		<path d="M263.4,118.8v-7.5h-1.5v-0.6c2,0,2.4-0.5,2.9-2.5h0.7v2.5h2.7v0.6h-2.7v7.7c0,1.3,0.2,1.6,1,1.6c0.5,0,1.1-0.4,1.3-1
			l0.5,0.3c-0.3,0.9-1.2,1.4-2.6,1.4C264.1,121.3,263.4,120.6,263.4,118.8z"/>
		<path d="M274.8,115.9c0-3.4,1.7-5.5,5-5.5c3.3,0,5,2,5,5.3c0,3.8-1.7,5.6-5.1,5.6C276.5,121.4,274.8,119.4,274.8,115.9z
			 M282.5,116c0-3.4-0.8-4.8-2.7-4.8s-2.7,1.4-2.7,4.8c0,3.4,0.8,4.8,2.7,4.8S282.5,119.3,282.5,116z"/>
		<path d="M292.9,120.9c-0.2-0.1-0.5-0.1-0.7-0.1c-0.3,0-0.6,0.1-0.7,0.2l0.1-3.3l0.7-0.1c0,1.8,1.6,3.2,3.6,3.2
			c1.3,0,2.1-0.7,2.1-1.9c0-0.9-0.5-1.5-1.7-1.9l-2.4-0.7c-1.3-0.4-2.1-1.4-2.1-2.8c0-1.8,1.4-3.1,3.8-3.1c0.7,0,1.1,0.1,1.8,0.3
			c0.5,0.2,0.9,0.2,1.1,0.2s0.5-0.1,0.7-0.2l-0.2,2.8h-0.5c0-1.3-1.1-2.5-2.9-2.5c-1.3,0-2,0.8-2,1.8c0,0.8,0.5,1.4,1.5,1.6l2.4,0.7
			c1.7,0.5,2.3,1.3,2.3,2.8c0,2.2-1.7,3.4-4.1,3.4C295,121.4,294.5,121.3,292.9,120.9z"/>
	</g>
</g>
</svg>
